/home/fermin/Programming/JavaEE/springmvc-boilerplate/src/main/java/com/packt/boilerplate/config/DispatcherServletInitializer.java
/home/fermin/Programming/JavaEE/springmvc-boilerplate/src/main/java/com/packt/boilerplate/controller/HomeController.java
/home/fermin/Programming/JavaEE/springmvc-boilerplate/src/main/java/com/packt/boilerplate/domain/Product.java
/home/fermin/Programming/JavaEE/springmvc-boilerplate/src/main/java/com/packt/boilerplate/exception/NoProductsFoundUnderCategoryException.java
/home/fermin/Programming/JavaEE/springmvc-boilerplate/src/main/java/com/packt/boilerplate/exception/ProductNotFoundException.java
/home/fermin/Programming/JavaEE/springmvc-boilerplate/src/main/java/com/packt/boilerplate/config/RootApplicationContextConfig.java
/home/fermin/Programming/JavaEE/springmvc-boilerplate/src/main/java/com/packt/boilerplate/domain/repository/ProductRepository.java
/home/fermin/Programming/JavaEE/springmvc-boilerplate/src/main/java/com/packt/boilerplate/service/ProductService.java
/home/fermin/Programming/JavaEE/springmvc-boilerplate/src/main/java/com/packt/boilerplate/config/WebApplicationContextConfig.java
